<svg id="Livello_1" data-name="Livello 1" xmlns="http://www.w3.org/2000/svg" xmlns:xlink="http://www.w3.org/1999/xlink" viewBox="0 0 1846.4 624.68">
  <defs>
    <style>
      .cls-1 {
        fill: url(#Sfumatura_senza_nome);
      }

      .cls-2 {
        fill: url(#Sfumatura_senza_nome_2);
      }

      .cls-14, .cls-23, .cls-3 {
        fill: none;
        stroke-linecap: round;
      }

      .cls-3 {
        stroke: #fff;
      }

      .cls-14, .cls-22, .cls-23, .cls-3 {
        stroke-miterlimit: 10;
      }

      .cls-4 {
        fill: url(#Sfumatura_senza_nome_3);
      }

      .cls-5 {
        fill: url(#Sfumatura_senza_nome_4);
      }

      .cls-6 {
        fill: url(#Sfumatura_senza_nome_5);
      }

      .cls-7 {
        fill: #acbbf3;
      }

      .cls-8 {
        fill: #2445cd;
      }

      .cls-9 {
        fill: #d0d8f5;
      }

      .cls-10, .cls-22 {
        fill: #25282b;
      }

      .cls-11 {
        fill: url(#Sfumatura_senza_nome_6);
      }

      .cls-12 {
        fill: url(#Sfumatura_senza_nome_7);
      }

      .cls-13 {
        fill: #fff;
      }

      .cls-14 {
        stroke: #d0d8f5;
      }

      .cls-15 {
        fill: url(#Sfumatura_senza_nome_8);
      }

      .cls-16 {
        fill: url(#Sfumatura_senza_nome_9);
      }

      .cls-17 {
        fill: url(#Sfumatura_senza_nome_10);
      }

      .cls-18 {
        fill: url(#Sfumatura_senza_nome_11);
      }

      .cls-19 {
        fill: url(#Sfumatura_senza_nome_12);
      }

      .cls-20 {
        fill: #fa8fa4;
      }

      .cls-21 {
        fill: #0a0a0f;
      }

      .cls-22 {
        stroke: #0a0a0f;
      }

      .cls-23 {
        stroke: #acbbf3;
      }

      .cls-24 {
        fill: url(#Sfumatura_senza_nome_13);
      }

      .cls-25 {
        fill: url(#Sfumatura_senza_nome_14);
      }
    </style>
    <linearGradient id="Sfumatura_senza_nome" data-name="Sfumatura senza nome" x1="448.4" y1="-922.01" x2="2294.8" y2="-922.01" gradientTransform="translate(1978.7 160) rotate(180)" gradientUnits="userSpaceOnUse">
      <stop offset="0" stop-color="#597def"/>
      <stop offset="1" stop-color="#d0d8f5"/>
    </linearGradient>
    <linearGradient id="Sfumatura_senza_nome_2" data-name="Sfumatura senza nome 2" x1="556.34" y1="-815.96" x2="598.32" y2="-1155.63" xlink:href="#Sfumatura_senza_nome"/>
    <linearGradient id="Sfumatura_senza_nome_3" data-name="Sfumatura senza nome 3" x1="356.46" y1="-917.13" x2="501.78" y2="-1172.42" xlink:href="#Sfumatura_senza_nome"/>
    <linearGradient id="Sfumatura_senza_nome_4" data-name="Sfumatura senza nome 4" x1="741.1" y1="-1167.99" x2="793.26" y2="-1167.99" xlink:href="#Sfumatura_senza_nome"/>
    <linearGradient id="Sfumatura_senza_nome_5" data-name="Sfumatura senza nome 5" x1="521.88" y1="-975.67" x2="547.56" y2="-1183.37" xlink:href="#Sfumatura_senza_nome"/>
    <linearGradient id="Sfumatura_senza_nome_6" data-name="Sfumatura senza nome 6" x1="834.5" y1="-1040.4" x2="1070" y2="-1040.4" gradientTransform="translate(1978.7 160) rotate(180)" gradientUnits="userSpaceOnUse">
      <stop offset="0" stop-color="#52575c"/>
      <stop offset="1" stop-color="#cacccf"/>
    </linearGradient>
    <linearGradient id="Sfumatura_senza_nome_7" data-name="Sfumatura senza nome 7" x1="843.89" y1="-1208.38" x2="1190.7" y2="-912.46" xlink:href="#Sfumatura_senza_nome_6"/>
    <linearGradient id="Sfumatura_senza_nome_8" data-name="Sfumatura senza nome 8" x1="751.58" y1="-925.02" x2="711.62" y2="-1216.28" xlink:href="#Sfumatura_senza_nome"/>
    <linearGradient id="Sfumatura_senza_nome_9" data-name="Sfumatura senza nome 9" x1="2142.78" y1="-827.63" x2="2184.76" y2="-1167.31" gradientTransform="translate(2115.6 616.87) rotate(-168.15)" xlink:href="#Sfumatura_senza_nome"/>
    <linearGradient id="Sfumatura_senza_nome_10" data-name="Sfumatura senza nome 10" x1="1436.76" y1="-930.23" x2="1582.09" y2="-1185.52" gradientTransform="matrix(1, 0, 0, -1, -1836.2, 160)" xlink:href="#Sfumatura_senza_nome"/>
    <linearGradient id="Sfumatura_senza_nome_11" data-name="Sfumatura senza nome 11" x1="2196.61" y1="-923.71" x2="2156.65" y2="-1214.98" gradientTransform="matrix(0.88, 0.47, 0.47, -0.88, -1573.25, -734.16)" xlink:href="#Sfumatura_senza_nome"/>
    <linearGradient id="Sfumatura_senza_nome_12" data-name="Sfumatura senza nome 12" x1="2360.62" y1="-1096.22" x2="2320.66" y2="-1387.49" gradientTransform="matrix(0.49, 0.87, 0.79, -0.45, -306.33, -1268.84)" xlink:href="#Sfumatura_senza_nome"/>
    <linearGradient id="Sfumatura_senza_nome_13" data-name="Sfumatura senza nome 13" x1="792.3" y1="-1093.8" x2="806.56" y2="-1093.8" xlink:href="#Sfumatura_senza_nome"/>
    <linearGradient id="Sfumatura_senza_nome_14" data-name="Sfumatura senza nome 14" x1="778.07" y1="-1117.7" x2="796.14" y2="-1117.7" xlink:href="#Sfumatura_senza_nome"/>
  </defs>
  <title>contact_bg</title>
  <g id="OBJECTS">
    <g>
      <path class="cls-1" d="M-316.1,1394.1H1530.3V776.9s-373.5-38.6-659.4,65.8C475.6,987,586.8,1005.3,301.1,1020.5,35.2,1034.6-.7,822.5-316.1,817.3" transform="translate(316.1 -769.92)"/>
      <g>
        <path class="cls-2" d="M1414.9,1382.5s32.9-356.2-19.7-376.9c-56.3-22.3-10.3,376.9-10.3,376.9Z" transform="translate(316.1 -769.92)"/>
        <path class="cls-3" d="M1393.9,1050.7s6.8,113.2-3,240.1" transform="translate(316.1 -769.92)"/>
      </g>
      <g>
        <path class="cls-4" d="M1457.4,1381c.2,0,7.9-216.8,72.8-274.5V1381Z" transform="translate(316.1 -769.92)"/>
        <path class="cls-3" d="M1520.6,1207.3s-21.1,65.4-29.4,173.7" transform="translate(316.1 -769.92)"/>
      </g>
      <path class="cls-5" d="M1237.6,1381s-15-114.6-42.6-105.5c-31.3,10.4,24.3,105.5,24.3,105.5Z" transform="translate(316.1 -769.92)"/>
      <path class="cls-6" d="M1407.3,1381s7.8-162.2,41.9-226.4c0,0,34.8,90.2-9.2,225.5Z" transform="translate(316.1 -769.92)"/>
      <path class="cls-7" d="M1194.2,1066.5h0a7.88,7.88,0,0,0,.8-8.7l-3.9-6.7c-1.6-2.7-3.7-4.2-5.7-2.2,0,0-3.7,4.9-6.2,3.4-2.8-1.8-8.2-9.7-10.9-15.6-1.9-4,4.1-10.4,4.1-10.4,2-2.2,1.3-4.7-.3-7.3l-3.9-6.7c-1.6-2.7-4.5-3.2-6.5-1h0C1146.2,1028.1,1173.4,1081.2,1194.2,1066.5Z" transform="translate(316.1 -769.92)"/>
      <rect class="cls-8" x="1180.6" y="579.38" width="127.8" height="31.6"/>
      <rect class="cls-9" x="1194.7" y="560.78" width="99.5" height="18.5"/>
      <g>
        <path class="cls-10" d="M963,1300.6h183.3c2.1,0,3.8-2.3,3.8-5.1a6.6,6.6,0,0,0-.1-1.4l-36.9-182.3c-1.4-6.8-6-11.6-11.3-11.6H918.4c-2.1,0-3.8,2.3-3.8,5.1a6.6,6.6,0,0,0,.1,1.4L951.6,1289C953,1295.8,957.7,1300.6,963,1300.6Z" transform="translate(316.1 -769.92)"/>
        <path class="cls-11" d="M957.1,1300.6h183.3c2.1,0,3.8-2.3,3.8-5.1a6.6,6.6,0,0,0-.1-1.4l-36.9-182.3c-1.4-6.8-6-11.6-11.4-11.6H912.5c-2.1,0-3.8,2.3-3.8,5.1a6.6,6.6,0,0,0,.1,1.4l37,182.3C947.2,1295.8,951.8,1300.6,957.1,1300.6Z" transform="translate(316.1 -769.92)"/>
        <path class="cls-12" d="M1043.5,1204.6l27.2,147.9c1.9,10.5,9,18,17,18h22.4c2.2,0,3.9,2.4,4,5.3h0c0,2.9-1.8,5.3-3.9,5.3h-58.8c-7.1,0-13.3-6.6-15-15.9l-28.2-157.9c-.6-2.9.7-5.8,2.9-6.6a3.75,3.75,0,0,1,1.1-.1h27.6C1041.5,1200.5,1043.1,1202.2,1043.5,1204.6Z" transform="translate(316.1 -769.92)"/>
      </g>
      <path d="M823.6,1394h706.7v-13H823.6c-2.7,0-4.9,2.9-4.9,6.6h0c0,3.5,2.2,6.4,4.9,6.4Z" transform="translate(316.1 -769.92)"/>
      <path class="cls-13" d="M1481.5,1034c13.1,4.8,20.8,22.9,17.2,40.4-1.6,7.6-5.1,14.3-10,18.7l.1,14.8-7.7-10.2c-13.1,4.4-26.5-6.3-29.8-23.9s4.7-35.5,17.8-40a17.65,17.65,0,0,1,12.4.2Zm1.3,37.6c1.2.4,2.4-.5,2.7-2a3.47,3.47,0,0,0-1.5-3.7c-1.2-.4-2.4.5-2.7,2h0c-.3,1.6.4,3.3,1.5,3.7Zm-8.3-2.9c1.2.4,2.4-.5,2.7-2a3.47,3.47,0,0,0-1.5-3.7c-1.2-.4-2.4.5-2.7,2h0a3.33,3.33,0,0,0,1.5,3.7Zm-8.3-3.1c1.2.4,2.4-.5,2.7-2a3.47,3.47,0,0,0-1.5-3.7c-1.2-.4-2.4.5-2.7,2h0c-.3,1.7.3,3.2,1.5,3.7Z" transform="translate(316.1 -769.92)"/>
      <g>
        <path class="cls-13" d="M1208.5,873.7l-.7-4.2c-1.8-10.1-9.3-16.6-16.9-14.2h0c-7.6,2.4-12.3,12.5-10.6,22.8V878c1.6,9.7,5.1,14.9,10.3,19.4l2.7,2.3a20.67,20.67,0,0,1,6.7,12.5l1.3,7.6" transform="translate(316.1 -769.92)"/>
        <g>
          <path class="cls-7" d="M1201.9,923.8c1.8-.5,2.9-2.9,2.5-5.3h0l-1.3-7.5c-1.1-6.3-4-11.9-8.1-15.3l-2.7-2.3c-4.2-3.5-7.3-7.7-8.8-16.4h0c-1.3-7.8,2.3-15.6,8.1-17.5s11.6,3,13,10.9l.7,4.2c.4,2.4,2.2,3.8,3.9,3.3s2.9-2.9,2.5-5.3h0l-.7-4.2c-2.1-12.5-11.4-20.5-20.8-17.6s-15.3,15.3-13.1,28h0c1.6,10,5.1,16.6,11.7,22.1l2.7,2.3a16.43,16.43,0,0,1,5.2,9.7l1.3,7.5c.4,2.5,2.2,3.9,3.9,3.4Z" transform="translate(316.1 -769.92)"/>
          <path class="cls-7" d="M1200,935.1c.4,2.7,2.4,4.2,4.3,3.7s3.1-3.2,2.7-5.8-2.4-4.2-4.3-3.7-3.1,3.1-2.7,5.8Z" transform="translate(316.1 -769.92)"/>
        </g>
      </g>
      <g>
        <path class="cls-13" d="M1370.2,887.9h0a24.4,24.4,0,0,0,1.3,15.8l1,2.5a16.94,16.94,0,0,1,.8,10.2l-1.1,4.9,3.4-5.2a21.32,21.32,0,0,0-1.2-11.5l-1-2.5a21.16,21.16,0,0,1-1.1-13.4c1.1-5.2,5.2-8.1,9-6.6h0c3.8,1.5,6,7,4.9,12.1l-.6,2.7a3.45,3.45,0,0,0,.7,3l1.5-2.2.6-2.7c1.5-6.7-1.3-13.8-6.3-15.8-5-1.8-10.3,2-11.9,8.7Z" transform="translate(316.1 -769.92)"/>
        <g>
          <path class="cls-13" d="M1368.1,887l-.1.4a28.13,28.13,0,0,0,1.5,17.7l1,2.5a13.83,13.83,0,0,1,.6,8.1l-1.1,4.9a3.38,3.38,0,0,0,1.6,3.7c1.1.4,2.3-.5,2.7-1.9l1.1-4.9c.1-.4.1-.6.2-1a21.32,21.32,0,0,0-1.2-11.5l-1-2.5a21.16,21.16,0,0,1-1.1-13.4c1.1-5.2,5.2-8.1,9-6.6h0c3.8,1.5,6,7,4.9,12.1l-.6,2.7c-.3,1.5.3,3.2,1.5,3.7s2.4-.4,2.7-2l.6-2.7c1.8-8.2-1.7-16.9-7.8-19.4-6.1-2.7-12.6,1.9-14.5,10.1Z" transform="translate(316.1 -769.92)"/>
          <path class="cls-13" d="M1367.7,929.9a3.48,3.48,0,0,0,1.6,4c1.3.5,2.6-.5,3-2.2a3.48,3.48,0,0,0-1.6-4c-1.3-.6-2.6.4-3,2.2Z" transform="translate(316.1 -769.92)"/>
        </g>
      </g>
      <g>
        <polygon class="cls-13" points="1761.3 191.68 1791.1 180.98 1785.8 154.78 1773.5 173.28 1756 165.68 1761.3 191.68"/>
        <polygon class="cls-13" points="1768.9 150.08 1779.9 146.08 1782 156.18 1772.9 169.98 1759.8 164.28 1757.8 154.18 1768.9 150.08"/>
        <polygon class="cls-7" points="1775.4 149.58 1758.5 155.68 1758.3 154.88 1775.2 148.68 1775.4 149.58"/>
        <polygon class="cls-7" points="1776.2 153.78 1759.3 159.88 1759.1 158.98 1776 152.88 1776.2 153.78"/>
      </g>
      <path class="cls-3" d="M1475.1,849.7c0,2.9,1.8,5.2,3.9,5.2s3.9-2.4,3.9-5.3-1.7-5.2-3.9-5.2-3.9,2.4-3.9,5.3Z" transform="translate(316.1 -769.92)"/>
      <path class="cls-3" d="M1312.3,924.7c0,2.9,1.7,5.2,3.9,5.2s3.9-2.3,3.9-5.2-1.7-5.2-3.9-5.2-3.9,2.3-3.9,5.2Z" transform="translate(316.1 -769.92)"/>
      <path class="cls-14" d="M1211.8,992.5c0,2.9,1.7,5.2,3.9,5.2s3.9-2.3,3.9-5.2-1.7-5.2-3.9-5.2-3.9,2.3-3.9,5.2Z" transform="translate(316.1 -769.92)"/>
      <g>
        <path class="cls-15" d="M1284.4,1381s2.6-177.3-50.5-245.3c0,0-24.7,83.6,12.7,245.3Z" transform="translate(316.1 -769.92)"/>
        <path class="cls-3" d="M1246.2,1189.2s-3.9,71.1,14.9,177" transform="translate(316.1 -769.92)"/>
      </g>
      <g>
        <path class="cls-16" d="M-242.2,1383.3s105.3-341.9,58.1-373c-50.5-33.3-87.5,366.8-87.5,366.8Z" transform="translate(316.1 -769.92)"/>
        <path class="cls-3" d="M-194.6,1054.2s-16.6,112.2-52.2,234.3" transform="translate(316.1 -769.92)"/>
      </g>
      <g>
        <path class="cls-17" d="M-234.6,1394.1c-.2,0-7.9-216.8-72.8-274.5v274.5Z" transform="translate(316.1 -769.92)"/>
        <path class="cls-3" d="M-297.8,1220.4s21.1,65.4,29.4,173.7" transform="translate(316.1 -769.92)"/>
      </g>
      <g>
        <path class="cls-18" d="M-265.1,1352.2s81.6-157.5,160.5-192.2c0,0-17.8,85.4-127.2,210.1Z" transform="translate(316.1 -769.92)"/>
        <path class="cls-3" d="M-140.7,1201.3s-30.2,64.5-96.8,148.9" transform="translate(316.1 -769.92)"/>
      </g>
      <g>
        <path class="cls-19" d="M-271.5,1361.3s139.3-82.2,219.4-66.7c0,0-54.1,59.2-200.8,99.6Z" transform="translate(316.1 -769.92)"/>
        <path class="cls-3" d="M-100.6,1308s-54.4,35.4-147.7,66.8" transform="translate(316.1 -769.92)"/>
      </g>
      <g>
        <polygon class="cls-20" points="1631.3 322.68 1632.3 340.48 1632.6 346.28 1633.7 364.98 1663 365.78 1659.7 326.78 1658 306.68 1657.1 297.08 1631.3 322.68"/>
        <path class="cls-9" d="M1316.2,1110.4l.3,5.8c17.3,0,25.2-31.9,25.8-34.4l-.4-5.1C1336.5,1091.6,1327.4,1103.6,1316.2,1110.4Z" transform="translate(316.1 -769.92)"/>
        <path class="cls-20" d="M1155.9,1165.7s-13.7-20.5-24.7-22c-4.1-.5,2.8,11,2.8,11h-46.2s1.7,7.6,5.2,11,41.1,18.5,41.1,18.5Z" transform="translate(316.1 -769.92)"/>
        <path class="cls-20" d="M1296,1022.2c-4,4-10.6,8.7-11.6,15.3-.8,5.9,8,25.6,3.8,33.1-7.8,14,8.3,34,14,39.3,13.7,12.6,48.9-24.7,37-73.2C1330.2,1000,1307.6,1010.3,1296,1022.2Z" transform="translate(316.1 -769.92)"/>
        <path class="cls-21" d="M1337.5,1015.8s-36.9,34.4-55.2,19.7-.9-43.5-.9-43.5,4,10.1,17.3,4.3S1336.5,986.7,1337.5,1015.8Z" transform="translate(316.1 -769.92)"/>
        <path class="cls-21" d="M1321.6,1012.1s8.7-16.8,20.4-7c8.9,7.5,7,49.2-1.1,65C1341,1070.3,1340.8,1021.2,1321.6,1012.1Z" transform="translate(316.1 -769.92)"/>
        <path class="cls-21" d="M1315.6,1022.7s7.3,23.7,15.7,29.6c0,0-.8,12.8,7.8,12.8,0,0-2.6-4,.2-13a38.78,38.78,0,0,0,1.4-6.1c1.7-12.3-6.3-34.9-15.2-33.5S1315.6,1022.7,1315.6,1022.7Z" transform="translate(316.1 -769.92)"/>
        <path class="cls-20" d="M1339,1071.3a8.37,8.37,0,0,0,8.8-5.9c4.6-12.4-5.4-19.9-8.6-13.3Z" transform="translate(316.1 -769.92)"/>
        <path class="cls-13" d="M1314.8,1077.8s-3.3,20.7-11.7,16.6c-5.7-2.9-9.3-14.2-9.3-14.2Z" transform="translate(316.1 -769.92)"/>
        <path class="cls-10" d="M1310.9,1056.3c.1,2.2.8,3.8,1.4,3.8s1.1-1.9.9-4-.7-3.8-1.4-3.8S1310.8,1054.1,1310.9,1056.3Z" transform="translate(316.1 -769.92)"/>
        <path class="cls-10" d="M1291.9,1058.5c.1,2.2.8,3.8,1.4,3.8s1.1-1.9.9-4-.7-3.8-1.4-3.8S1291.8,1056.4,1291.9,1058.5Z" transform="translate(316.1 -769.92)"/>
        <path class="cls-10" d="M1407.3,1381s41.2-176.3-1.3-215.7-70.6-46.7-114-23.1-20.8,238.7-20.8,238.7Z" transform="translate(316.1 -769.92)"/>
        <path class="cls-10" d="M1305.4,1221.7l-67.8,82.6c-15.7,19.1-39.9,17.5-54.1-3.5a50.79,50.79,0,0,1-5.1-9.5L1134,1184.2l21.9-18.3s43.7,68.8,51.2,63.2,39.7-100.3,123.9-100.1C1371.4,1129.1,1305.4,1221.7,1305.4,1221.7Z" transform="translate(316.1 -769.92)"/>
        <path class="cls-10" d="M1405.9,1165.3s42.6,44.5,68.5,131.5c12,40.2-10,84-42.3,84h-95l1.8-39.6,66.3-45.4C1405.2,1296,1335.9,1215,1405.9,1165.3Z" transform="translate(316.1 -769.92)"/>
        <path class="cls-8" d="M1333.1,1049.7s-4-46.8-26.5-55.8c4.1-4.3,9.7-4.9,14.2-1.4,0,0,17.8,12.9,20.9,58.2Z" transform="translate(316.1 -769.92)"/>
        <g>
          <path class="cls-21" d="M1312.4,1103.7a47.61,47.61,0,0,0,15.7-13.5c8-10.5,8.3-24.9,8.3-25.6l-3.3-.1c0,.1-.6,13.7-7.6,23a39,39,0,0,1-15.2,12.5l.9,4.3C1311.2,1104.2,1311.7,1104.1,1312.4,1103.7Z" transform="translate(316.1 -769.92)"/>
          <path class="cls-21" d="M1313.6,1098.4c.4,2.4-.5,4.9-2.2,5.8s-3.4-.4-4-2.5.3-4.6,1.9-5.3h0A3,3,0,0,1,1313.6,1098.4Z" transform="translate(316.1 -769.92)"/>
        </g>
        <ellipse class="cls-10" cx="1657" cy="288.48" rx="14.6" ry="21.8"/>
        <ellipse class="cls-8" cx="1661.7" cy="288.48" rx="13" ry="19.4"/>
        <path class="cls-13" d="M1355.5,1131.9l-10.6-20.7-18.5,17.7-9.9-12.8-9.3,15.3,10.2,16.1,8.9-13.4,8.1,15.7C1334.4,1149.9,1347.6,1144,1355.5,1131.9Z" transform="translate(316.1 -769.92)"/>
        <path class="cls-22" d="M1382.4,1249.2l22.5,47.7c2.8,5.9,1.5,13.9-3,17.7a20.28,20.28,0,0,1-1.8,1.3l-65.7,32" transform="translate(316.1 -769.92)"/>
        <path class="cls-20" d="M1337.2,1381l-2.7-26.6s-33.8,13.2-36,15.6-8.3,11-8.3,11Z" transform="translate(316.1 -769.92)"/>
        <line class="cls-3" x1="1721.6" y1="187.38" x2="1723.3" y2="202.38"/>
      </g>
      <line class="cls-3" x1="1716.9" y1="195.98" x2="1728" y2="193.58"/>
      <line class="cls-14" x1="1438.6" y1="267.78" x2="1440.3" y2="282.78"/>
      <line class="cls-14" x1="1433.9" y1="276.48" x2="1445" y2="274.08"/>
      <rect class="cls-3" x="1813.7" y="215.08" width="9" height="12"/>
      <polygon class="cls-23" points="1589.5 81.18 1582.7 88.98 1576.8 79.88 1583.7 72.08 1589.5 81.18"/>
      <path class="cls-13" d="M1162.2,1303.9H1202c2.5,0,4.4,2.7,4.5,5.9h0v34.9a49.42,49.42,0,0,1-5.1,22l-4.9,9.5c-1.5,2.9-4,4.7-6.6,4.7h-15.6c-2.7,0-5.1-1.8-6.6-4.7l-5.7-11.4a41,41,0,0,1-4.2-18.6V1310c-.1-3.4,1.9-6.1,4.4-6.1Z" transform="translate(316.1 -769.92)"/>
      <path class="cls-13" d="M1187.1,1354.6h22.2c7.5-.3,13.4-8.6,13.2-18.7-.2-9.7-6-17.5-13.2-17.7h-22.2Zm22.2-28.4c4.2,0,7.6,4.6,7.6,10.2s-3.4,10.1-7.6,10.1h-16.2V1326Z" transform="translate(316.1 -769.92)"/>
      <path class="cls-24" d="M1180.6,1281.3a25.76,25.76,0,0,0,5.1-22.5c-3.1-13.7-9.8-22.8-5.1-32.5,0,0-11.8,2.4-7.6,18.5S1184.2,1270.9,1180.6,1281.3Z" transform="translate(316.1 -769.92)"/>
      <path class="cls-25" d="M1188.8,1253.8s8,15.7,0,27.4c-9.5,13.9-5.3,20.4-5.3,20.4s2.9-6.2,10.8-13.2C1201.1,1282.5,1206.2,1262.9,1188.8,1253.8Z" transform="translate(316.1 -769.92)"/>
    </g>
  </g>
</svg>
